{
  "version": "14.0.0",
  "vulnerabilities": [
    {
      "id": "e4bf110007a764c8e6afe42b277830821bad22217d923a8f03af25fdb0f224d4",
      "category": "sast",
      "name": "eval with argument of type Identifier",
      "message": "eval with argument of type Identifier",
      "description": "eval() used with a variable. This can lead to command injection.",
      "cve": "src/jsx/main.jsx:e3b0c44298fc1c149afbf4c8996fb92427ae41e4649b934ca495991b7852b855:security/detect-eval-with-expression",
      "severity": "Critical",
      "confidence": "Unknown",
      "scanner": {
        "id": "eslint",
        "name": "ESLint"
      },
      "location": {
        "file": "src/jsx/main.jsx",
        "start_line": 10
      },
      "identifiers": [
        {
          "type": "eslint_rule_id",
          "name": "ESLint rule ID security/detect-eval-with-expression",
          "value": "security/detect-eval-with-expression",
          "url": "https://github.com/nodesecurity/eslint-plugin-security#detect-eval-with-expression"
        },
        {
          "type": "cwe",
          "name": "CWE-95",
          "value": "95",
          "url": "https://cwe.mitre.org/data/definitions/95.html"
        }
      ]
    },
    {
      "id": "7e3141cde6f47f99f022af68f8ef437d6890e500ca160c01039056bbdc96445f",
      "category": "sast",
      "name": "Generic Object Injection Sink",
      "message": "Generic Object Injection Sink",
      "description": "Bracket object notation with user input is present, this might allow an attacker to access all properties of the object and even it's prototype, leading to possible code execution.",
      "cve": "src/jsx/main.jsx:e3b0c44298fc1c149afbf4c8996fb92427ae41e4649b934ca495991b7852b855:security/detect-object-injection",
      "severity": "Critical",
      "confidence": "Unknown",
      "scanner": {
        "id": "eslint",
        "name": "ESLint"
      },
      "location": {
        "file": "src/jsx/main.jsx",
        "start_line": 28
      },
      "identifiers": [
        {
          "type": "eslint_rule_id",
          "name": "ESLint rule ID security/detect-object-injection",
          "value": "security/detect-object-injection",
          "url": "https://github.com/nodesecurity/eslint-plugin-security#detect-object-injection"
        },
        {
          "type": "cwe",
          "name": "CWE-94",
          "value": "94",
          "url": "https://cwe.mitre.org/data/definitions/94.html"
        }
      ]
    },
    {
      "id": "345e0698195397fea44e799fac1a0e46dc31fbcc55a4d616eeaa1f5a306c8f5b",
      "category": "sast",
      "name": "Found non-literal argument to RegExp Constructor",
      "message": "Found non-literal argument to RegExp Constructor",
      "description": "RegExp() called with a variable, this might allow an attacker to DOS your application with a long-running regular expression.",
      "cve": "src/jsx/main.jsx:e3b0c44298fc1c149afbf4c8996fb92427ae41e4649b934ca495991b7852b855:security/detect-non-literal-regexp",
      "severity": "Medium",
      "confidence": "Unknown",
      "scanner": {
        "id": "eslint",
        "name": "ESLint"
      },
      "location": {
        "file": "src/jsx/main.jsx",
        "start_line": 16
      },
      "identifiers": [
        {
          "type": "eslint_rule_id",
          "name": "ESLint rule ID security/detect-non-literal-regexp",
          "value": "security/detect-non-literal-regexp",
          "url": "https://github.com/nodesecurity/eslint-plugin-security#detect-non-literal-regexp"
        },
        {
          "type": "cwe",
          "name": "CWE-185",
          "value": "185",
          "url": "https://cwe.mitre.org/data/definitions/185.html"
        }
      ]
    },
    {
      "id": "68fc300dfabb3d5e0e9fae93f9cca1091a1507e171a8a7a6da8d141debdea07d",
      "category": "sast",
      "name": "Potential timing attack, right side: true",
      "message": "Potential timing attack, right side: true",
      "description": "Insecure comparisons (==, !=, !== and ===), which check input sequentially. This could lead to timing attacks on your application.",
      "cve": "src/jsx/main.jsx:e3b0c44298fc1c149afbf4c8996fb92427ae41e4649b934ca495991b7852b855:security/detect-possible-timing-attacks",
      "severity": "Low",
      "confidence": "Unknown",
      "scanner": {
        "id": "eslint",
        "name": "ESLint"
      },
      "location": {
        "file": "src/jsx/main.jsx",
        "start_line": 50,
        "end_line": 52
      },
      "identifiers": [
        {
          "type": "eslint_rule_id",
          "name": "ESLint rule ID security/detect-possible-timing-attacks",
          "value": "security/detect-possible-timing-attacks",
          "url": "https://github.com/nodesecurity/eslint-plugin-security#detect-possible-timing-attacks"
        },
        {
          "type": "cwe",
          "name": "CWE-208",
          "value": "208",
          "url": "https://cwe.mitre.org/data/definitions/208.html"
        }
      ]
    }
  ],
  "scan": {
    "scanner": {
      "id": "eslint",
      "name": "ESLint",
      "url": "https://github.com/nodesecurity/eslint-plugin-security",
      "vendor": {
        "name": "GitLab"
      },
      "version": "7.25.0"
    },
    "type": "sast",
    "start_time": "2021-05-13T22:07:04",
    "end_time": "2021-05-13T22:07:05",
    "status": "success"
  }
}
