{
  "version": "2.4",
  "vulnerabilities": [
    {
      "id": "5a89fbc86a9113a09c7d4e44f1d19b63bf43d328834c2226f39b71e661c1e0bf",
      "category": "sast",
      "name": "eval with argument of type MemberExpression",
      "message": "eval with argument of type MemberExpression",
      "description": "eval() used with a variable. This can lead to command injection.",
      "cve": "src/app.tsx:e3b0c44298fc1c149afbf4c8996fb92427ae41e4649b934ca495991b7852b855:security/detect-eval-with-expression",
      "severity": "Critical",
      "confidence": "Unknown",
      "scanner": {
        "id": "eslint",
        "name": "ESLint"
      },
      "location": {
        "file": "src/app.tsx",
        "start_line": 47
      },
      "identifiers": [
        {
          "type": "eslint_rule_id",
          "name": "ESLint rule ID security/detect-eval-with-expression",
          "value": "security/detect-eval-with-expression",
          "url": "https://github.com/nodesecurity/eslint-plugin-security#detect-eval-with-expression"
        },
        {
          "type": "cwe",
          "name": "CWE-95",
          "value": "95",
          "url": "https://cwe.mitre.org/data/definitions/95.html"
        }
      ]
    },
    {
      "id": "8c2c1e21009921ff71b15621ef25125fec2005c4a75fdfb3b991f1e59da56e63",
      "category": "sast",
      "name": "Found non-literal argument to RegExp Constructor",
      "message": "Found non-literal argument to RegExp Constructor",
      "description": "RegExp() called with a variable, this might allow an attacker to DOS your application with a long-running regular expression.",
      "cve": "src/app.tsx:e3b0c44298fc1c149afbf4c8996fb92427ae41e4649b934ca495991b7852b855:security/detect-non-literal-regexp",
      "severity": "Medium",
      "confidence": "Unknown",
      "scanner": {
        "id": "eslint",
        "name": "ESLint"
      },
      "location": {
        "file": "src/app.tsx",
        "start_line": 34
      },
      "identifiers": [
        {
          "type": "eslint_rule_id",
          "name": "ESLint rule ID security/detect-non-literal-regexp",
          "value": "security/detect-non-literal-regexp",
          "url": "https://github.com/nodesecurity/eslint-plugin-security#detect-non-literal-regexp"
        },
        {
          "type": "cwe",
          "name": "CWE-185",
          "value": "185",
          "url": "https://cwe.mitre.org/data/definitions/185.html"
        }
      ]
    },
    {
      "id": "33e0927adf94ff67729ffcc9890a69e14495021856f15c9e7354cd2ada21506c",
      "category": "sast",
      "name": "Potential timing attack, right side: true",
      "message": "Potential timing attack, right side: true",
      "description": "Insecure comparisons (==, !=, !== and ===), which check input sequentially. This could lead to timing attacks on your application.",
      "cve": "src/app.tsx:e3b0c44298fc1c149afbf4c8996fb92427ae41e4649b934ca495991b7852b855:security/detect-possible-timing-attacks",
      "severity": "Low",
      "confidence": "Unknown",
      "scanner": {
        "id": "eslint",
        "name": "ESLint"
      },
      "location": {
        "file": "src/app.tsx",
        "start_line": 24,
        "end_line": 28
      },
      "identifiers": [
        {
          "type": "eslint_rule_id",
          "name": "ESLint rule ID security/detect-possible-timing-attacks",
          "value": "security/detect-possible-timing-attacks",
          "url": "https://github.com/nodesecurity/eslint-plugin-security#detect-possible-timing-attacks"
        },
        {
          "type": "cwe",
          "name": "CWE-208",
          "value": "208",
          "url": "https://cwe.mitre.org/data/definitions/208.html"
        }
      ]
    },
    {
      "id": "1797c4724ef5e1037123abbb5c0be8bfad9bef92b742ba79b9423eb9442a24e1",
      "category": "sast",
      "name": "Found crypto.pseudoRandomBytes which does not produce cryptographically strong numbers",
      "message": "Found crypto.pseudoRandomBytes which does not produce cryptographically strong numbers",
      "description": "pseudoRandomBytes() is in use, this might not give you the randomness you need and expect.",
      "cve": "src/app.tsx:e3b0c44298fc1c149afbf4c8996fb92427ae41e4649b934ca495991b7852b855:security/detect-pseudoRandomBytes",
      "severity": "High",
      "confidence": "Unknown",
      "scanner": {
        "id": "eslint",
        "name": "ESLint"
      },
      "location": {
        "file": "src/app.tsx",
        "start_line": 41
      },
      "identifiers": [
        {
          "type": "eslint_rule_id",
          "name": "ESLint rule ID security/detect-pseudoRandomBytes",
          "value": "security/detect-pseudoRandomBytes",
          "url": "https://github.com/nodesecurity/eslint-plugin-security#detect-pseudoRandomBytes"
        },
        {
          "type": "cwe",
          "name": "CWE-338",
          "value": "338",
          "url": "https://cwe.mitre.org/data/definitions/338.html"
        }
      ]
    }
  ],
  "scan": {
    "scanner": {
      "id": "eslint",
      "name": "ESLint",
      "url": "https://github.com/nodesecurity/eslint-plugin-security",
      "vendor": {
        "name": "GitLab"
      },
      "version": "7.5.0"
    },
    "type": "sast",
    "status": "success",
    "start_time": "placeholder-value",
    "end_time": "placeholder-value"
  }
}
